turn,table,id,name
0,0,10000,leader_0
0,0,1,aamir57299
0,0,2,tom36441
0,0,3,akiva96611
0,1,10001,leader_1
0,1,4,heather45286
0,1,5,akiva87010
0,1,6,tom32812
0,2,10002,leader_2
0,2,7,charlie79913
0,2,8,aamir11152
0,2,9,heather47257
0,3,10003,leader_3
0,3,10,heather99546
0,3,11,ranger35696
0,3,12,ranger21191
1,0,10000,leader_0
1,0,4,heather45286
1,0,7,charlie79913
1,0,10,heather99546
1,1,10001,leader_1
1,1,1,aamir57299
1,1,8,aamir11152
1,1,11,ranger35696
1,2,10002,leader_2
1,2,2,tom36441
1,2,5,akiva87010
1,2,12,ranger21191
1,3,10003,leader_3
1,3,3,akiva96611
1,3,6,tom32812
1,3,9,heather47257
2,0,10000,leader_0
2,0,3,akiva96611
2,0,5,akiva87010
2,0,8,aamir11152
2,1,10001,leader_1
2,1,2,tom36441
2,1,6,tom32812
2,1,7,charlie79913
2,2,10002,leader_2
2,2,1,aamir57299
2,2,4,heather45286
2,2,9,heather47257
2,3,10003,leader_3
2,3,10,heather99546
2,3,11,ranger35696
2,3,12,ranger21191
